  ___    ____   __  ___  ____    _  __   ____ ______   ___    ___   _____   ___   ____ 
  / _ \  / __/  /  |/  / / __ \  / |/ /  / __//_  __/  / _ \  / _ | / ___/  / _ | / __ \
 / // / / _/   / /|_/ / / /_/ / /    /  _\ \   / /    / , _/ / __ |/ /__   / __ |/ /_/ /
/____/ /___/  /_/  /_/  \____/ /_/|_/  /___/  /_/    /_/|_| /_/ |_|\___/  /_/ |_|\____/ 

${AnsiColor.blue}